%YAML 1.1
%TAG !u! tag:unity3d.com,2011:
--- !u!1001 &8113026254196775579
PrefabInstance:
  m_ObjectHideFlags: 0
  serializedVersion: 2
  m_Modification:
    m_TransformParent: {fileID: 0}
    m_Modifications:
    - target: {fileID: 1000012560919920, guid: 85a8865d1bf4a63478038fae23776de8, type: 3}
      propertyPath: m_Name
      value: SmokeEffect
      objectReference: {fileID: 0}
    - target: {fileID: 1000012560919920, guid: 85a8865d1bf4a63478038fae23776de8, type: 3}
      propertyPath: m_IsActive
      value: 1
      objectReference: {fileID: 0}
    - target: {fileID: 4000011112872720, guid: 85a8865d1bf4a63478038fae23776de8, type: 3}
      propertyPath: m_LocalPosition.x
      value: -0.216
      objectReference: {fileID: 0}
    - target: {fileID: 4000011112872720, guid: 85a8865d1bf4a63478038fae23776de8, type: 3}
      propertyPath: m_LocalPosition.y
      value: -0.058
      objectReference: {fileID: 0}
    - target: {fileID: 4000011112872720, guid: 85a8865d1bf4a63478038fae23776de8, type: 3}
      propertyPath: m_LocalPosition.z
      value: -0.134
      objectReference: {fileID: 0}
    - target: {fileID: 4000011112872720, guid: 85a8865d1bf4a63478038fae23776de8, type: 3}
      propertyPath: m_LocalRotation.x
      value: -0.7071068
      objectReference: {fileID: 0}
    - target: {fileID: 4000011112872720, guid: 85a8865d1bf4a63478038fae23776de8, type: 3}
      propertyPath: m_LocalRotation.y
      value: -0
      objectReference: {fileID: 0}
    - target: {fileID: 4000011112872720, guid: 85a8865d1bf4a63478038fae23776de8, type: 3}
      propertyPath: m_LocalRotation.z
      value: -0
      objectReference: {fileID: 0}
    - target: {fileID: 4000011112872720, guid: 85a8865d1bf4a63478038fae23776de8, type: 3}
      propertyPath: m_LocalRotation.w
      value: 0.7071068
      objectReference: {fileID: 0}
    - target: {fileID: 4000011112872720, guid: 85a8865d1bf4a63478038fae23776de8, type: 3}
      propertyPath: m_RootOrder
      value: 0
      objectReference: {fileID: 0}
    - target: {fileID: 4000011112872720, guid: 85a8865d1bf4a63478038fae23776de8, type: 3}
      propertyPath: m_LocalEulerAnglesHint.x
      value: 0
      objectReference: {fileID: 0}
    - target: {fileID: 4000011112872720, guid: 85a8865d1bf4a63478038fae23776de8, type: 3}
      propertyPath: m_LocalEulerAnglesHint.y
      value: 0
      objectReference: {fileID: 0}
    - target: {fileID: 4000011112872720, guid: 85a8865d1bf4a63478038fae23776de8, type: 3}
      propertyPath: m_LocalEulerAnglesHint.z
      value: 0
      objectReference: {fileID: 0}
    - target: {fileID: 4000013243110618, guid: 85a8865d1bf4a63478038fae23776de8, type: 3}
      propertyPath: m_LocalPosition.x
      value: -0.519
      objectReference: {fileID: 0}
    - target: {fileID: 198000011104581616, guid: 85a8865d1bf4a63478038fae23776de8,
        type: 3}
      propertyPath: InitialModule.startLifetime.minScalar
      value: 0.1
      objectReference: {fileID: 0}
    - target: {fileID: 198000011104581616, guid: 85a8865d1bf4a63478038fae23776de8,
        type: 3}
      propertyPath: InitialModule.startLifetime.scalar
      value: 1
      objectReference: {fileID: 0}
    - target: {fileID: 1000011663725438, guid: 85a8865d1bf4a63478038fae23776de8, type: 3}
      propertyPath: m_IsActive
      value: 0
      objectReference: {fileID: 0}
    m_RemovedComponents: []
  m_SourcePrefab: {fileID: 100100000, guid: 85a8865d1bf4a63478038fae23776de8, type: 3}
